<?xml version="1.0" encoding="UTF-8" standalone="no"?>
<svg
   width="19.4575"
   height="16.969761"
   viewBox="0 0 19.4575 16.969761"
   version="1.1"
   id="svg14"
   sodipodi:docname="send-g.svg"
   inkscape:version="1.1 (c68e22c387, 2021-05-23)"
   xmlns:inkscape="http://www.inkscape.org/namespaces/inkscape"
   xmlns:sodipodi="http://sodipodi.sourceforge.net/DTD/sodipodi-0.dtd"
   xmlns="http://www.w3.org/2000/svg"
   xmlns:svg="http://www.w3.org/2000/svg"
   xmlns:rdf="http://www.w3.org/1999/02/22-rdf-syntax-ns#"
   xmlns:cc="http://creativecommons.org/ns#"
   xmlns:dc="http://purl.org/dc/elements/1.1/">
  <defs
     id="defs18" />
  <sodipodi:namedview
     id="namedview16"
     pagecolor="#ffffff"
     bordercolor="#666666"
     borderopacity="1.0"
     inkscape:pageshadow="2"
     inkscape:pageopacity="0.0"
     inkscape:pagecheckerboard="0"
     showgrid="false"
     inkscape:zoom="14.722222"
     inkscape:cx="2.6150943"
     inkscape:cy="7.7773585"
     inkscape:window-width="1366"
     inkscape:window-height="715"
     inkscape:window-x="-8"
     inkscape:window-y="-8"
     inkscape:window-maximized="1"
     inkscape:current-layer="svg14" />
  <!-- Generator: Sketch 52.5 (67469) - http://www.bohemiancoding.com/sketch -->
  <title
     id="title2">send</title>
  <desc
     id="desc4">Created with Sketch.</desc>
  <path
     d="M 1.4,16.884881 18.85,9.4048801 c 0.81,-0.35 0.81,-1.49 0,-1.84 L 1.4,0.08488018 c -0.66000002,-0.29 -1.39,0.2 -1.39,0.90999996 L 0,5.6048801 c 0,0.5 0.37,0.93 0.86999998,0.99 L 15,8.4848801 0.86999998,10.364881 C 0.37,10.434881 0,10.864881 0,11.364881 l 0.01,4.61 c 0,0.71 0.72999998,1.2 1.39,0.91 z"
     id="🔹Icon-Color"
     fill="#1d1d1d"
     style="fill:#b59600;fill-opacity:1" />
  <metadata
     id="metadata835">
    <rdf:RDF>
      <cc:Work
         rdf:about="">
        <dc:title>send</dc:title>
      </cc:Work>
    </rdf:RDF>
  </metadata>
</svg>
